<?xml version="1.0" encoding="utf-8"?>
<!-- Generator: Adobe Illustrator 20.0.0, SVG Export Plug-In . SVG Version: 6.00 Build 0)  -->
<svg version="1.1" id="Layer_1" xmlns="http://www.w3.org/2000/svg" xmlns:xlink="http://www.w3.org/1999/xlink" x="0px" y="0px"
	 viewBox="0 0 18.3 30.92" enable-background="new 0 0 18.3 30.92" xml:space="preserve">
<polyline fill="none" stroke="#000000" stroke-width="4" stroke-miterlimit="10" points="16.88,29.48 2.85,15.45 16.88,1.42 "/>
</svg>
